{
  "name": "cart",
  "base": "PersistedModel",
  "idInjection": true,
  "options": {
    "validateUpsert": true
  },
  "properties": {
    "product": {
      "type": "string"
    },
    "quantity": {
      "type": "number",
      "required": true
    },
    "totalPrice": {
      "type": "number",
      "required": true
    }
  },
  "validations": [],
  "relations": {},
  "acls": [],
  "methods": {}
}
